Proyecto/ParaleloSerial/verificacion_paraleloSerial.vcd
$date
	Sat Oct 23 18:02:29 2021
$end
$version
	Icarus Verilog
$end
$timescale
	1ns
$end
$scope module BUF $end
$var wire 1 ! A $end
$var wire 1 " Y $end
$upscope $end
$scope module BancoPruebas $end
$var wire 1 # valid_in $end
$var wire 1 $ reset $end
$var wire 1 % data_out_sintetizado $end
$var wire 1 & data_out $end
$var wire 8 ' data_in [7:0] $end
$var wire 1 ( clk_4f $end
$var wire 1 ) clk_32f $end
$scope module paraleloSerial_cond $end
$var wire 1 # valid_in $end
$var wire 1 $ reset $end
$var wire 8 * data_in [7:0] $end
$var wire 1 ( clk_4f $end
$var wire 1 ) clk_32f $end
$var reg 8 + data2send [7:0] $end
$var reg 1 & data_out $end
$var reg 4 , selector [3:0] $end
$var reg 1 - validTemp $end
$upscope $end
$scope module paraleloSerial_estruct $end
$var wire 1 # valid_in $end
$var wire 1 . validTemp $end
$var wire 4 / selector [3:0] $end
$var wire 1 $ reset $end
$var wire 1 % data_out_sintetizado $end
$var wire 8 0 data_in [7:0] $end
$var wire 8 1 data2send [7:0] $end
$var wire 1 ( clk_4f $end
$var wire 1 ) clk_32f $end
$var wire 1 2 _085_ $end
$var wire 1 3 _084_ $end
$var wire 1 4 _083_ $end
$var wire 1 5 _082_ $end
$var wire 1 6 _081_ $end
$var wire 1 7 _080_ $end
$var wire 1 8 _079_ $end
$var wire 1 9 _078_ $end
$var wire 1 : _077_ $end
$var wire 1 ; _076_ $end
$var wire 1 < _075_ $end
$var wire 1 = _074_ $end
$var wire 1 > _073_ $end
$var wire 1 ? _072_ $end
$var wire 1 @ _071_ $end
$var wire 1 A _070_ $end
$var wire 1 B _069_ $end
$var wire 1 C _068_ $end
$var wire 1 D _067_ $end
$var wire 1 E _066_ $end
$var wire 1 F _065_ $end
$var wire 1 G _064_ $end
$var wire 1 H _063_ $end
$var wire 1 I _062_ $end
$var wire 1 J _061_ $end
$var wire 1 K _060_ $end
$var wire 1 L _059_ $end
$var wire 1 M _058_ $end
$var wire 1 N _057_ $end
$var wire 1 O _056_ $end
$var wire 1 P _055_ $end
$var wire 1 Q _054_ $end
$var wire 1 R _053_ $end
$var wire 1 S _052_ $end
$var wire 1 T _051_ $end
$var wire 1 U _050_ $end
$var wire 1 V _049_ $end
$var wire 1 W _048_ $end
$var wire 1 X _047_ $end
$var wire 1 Y _046_ $end
$var wire 1 Z _045_ $end
$var wire 1 [ _044_ $end
$var wire 1 \ _043_ $end
$var wire 1 ] _042_ $end
$var wire 1 ^ _041_ $end
$var wire 1 _ _040_ $end
$var wire 1 ` _039_ $end
$var wire 1 a _038_ $end
$var wire 1 b _037_ $end
$var wire 1 c _036_ $end
$var wire 1 d _035_ $end
$var wire 1 e _034_ $end
$var wire 1 f _033_ $end
$var wire 1 g _032_ $end
$var wire 1 h _031_ $end
$var wire 1 i _030_ $end
$var wire 1 j _029_ $end
$var wire 1 k _028_ $end
$var wire 1 l _027_ $end
$var wire 1 m _026_ $end
$var wire 1 n _025_ $end
$var wire 1 o _024_ $end
$var wire 1 p _023_ $end
$var wire 1 q _022_ $end
$var wire 1 r _021_ $end
$var wire 1 s _020_ $end
$var wire 1 t _019_ $end
$var wire 1 u _018_ $end
$var wire 1 v _017_ $end
$var wire 1 w _016_ $end
$var wire 1 x _015_ $end
$var wire 1 y _014_ $end
$var wire 1 z _013_ $end
$var wire 1 { _012_ $end
$var wire 1 | _011_ $end
$var wire 1 } _010_ $end
$var wire 1 ~ _009_ $end
$var wire 1 !" _008_ $end
$var wire 1 "" _007_ $end
$var wire 1 #" _006_ $end
$var wire 1 $" _005_ $end
$var wire 1 %" _004_ $end
$var wire 1 &" _003_ $end
$var wire 4 '" _002_ [3:0] $end
$var wire 1 (" _001_ $end
$var wire 8 )" _000_ [7:0] $end
$scope module _086_ $end
$var wire 1 *" A $end
$var wire 1 h Y $end
$upscope $end
$scope module _087_ $end
$var wire 1 g Y $end
$var wire 1 . A $end
$upscope $end
$scope module _088_ $end
$var wire 1 f Y $end
$var wire 1 $ A $end
$upscope $end
$scope module _089_ $end
$var wire 1 +" A $end
$var wire 1 e Y $end
$upscope $end
$scope module _090_ $end
$var wire 1 ," A $end
$var wire 1 d Y $end
$upscope $end
$scope module _091_ $end
$var wire 1 -" A $end
$var wire 1 c Y $end
$upscope $end
$scope module _092_ $end
$var wire 1 ." A $end
$var wire 1 b Y $end
$upscope $end
$scope module _093_ $end
$var wire 1 /" A $end
$var wire 1 a Y $end
$upscope $end
$scope module _094_ $end
$var wire 1 0" A $end
$var wire 1 ` Y $end
$upscope $end
$scope module _095_ $end
$var wire 1 1" A $end
$var wire 1 _ Y $end
$upscope $end
$scope module _096_ $end
$var wire 1 2" A $end
$var wire 1 ^ Y $end
$upscope $end
$scope module _097_ $end
$var wire 1 3" A $end
$var wire 1 ] Y $end
$upscope $end
$scope module _098_ $end
$var wire 1 4" A $end
$var wire 1 \ Y $end
$upscope $end
$scope module _099_ $end
$var wire 1 [ Y $end
$var wire 1 . B $end
$var wire 1 % A $end
$upscope $end
$scope module _100_ $end
$var wire 1 [ A $end
$var wire 1 Z Y $end
$upscope $end
$scope module _101_ $end
$var wire 1 5" A $end
$var wire 1 Y Y $end
$var wire 1 . B $end
$upscope $end
$scope module _102_ $end
$var wire 1 h A $end
$var wire 1 6" B $end
$var wire 1 X Y $end
$upscope $end
$scope module _103_ $end
$var wire 1 h A $end
$var wire 1 ] B $end
$var wire 1 W Y $end
$upscope $end
$scope module _104_ $end
$var wire 1 7" A $end
$var wire 1 W B $end
$var wire 1 V Y $end
$upscope $end
$scope module _105_ $end
$var wire 1 X A $end
$var wire 1 V B $end
$var wire 1 U Y $end
$upscope $end
$scope module _106_ $end
$var wire 1 h A $end
$var wire 1 ^ B $end
$var wire 1 T Y $end
$upscope $end
$scope module _107_ $end
$var wire 1 8" A $end
$var wire 1 \ B $end
$var wire 1 S Y $end
$upscope $end
$scope module _108_ $end
$var wire 1 T A $end
$var wire 1 S B $end
$var wire 1 R Y $end
$upscope $end
$scope module _109_ $end
$var wire 1 9" A $end
$var wire 1 R B $end
$var wire 1 Q Y $end
$upscope $end
$scope module _110_ $end
$var wire 1 U A $end
$var wire 1 Q B $end
$var wire 1 P Y $end
$upscope $end
$scope module _111_ $end
$var wire 1 :" A $end
$var wire 1 P B $end
$var wire 1 O Y $end
$upscope $end
$scope module _112_ $end
$var wire 1 ;" A $end
$var wire 1 <" B $end
$var wire 1 N Y $end
$upscope $end
$scope module _113_ $end
$var wire 1 h A $end
$var wire 1 =" B $end
$var wire 1 M Y $end
$upscope $end
$scope module _114_ $end
$var wire 1 N A $end
$var wire 1 M B $end
$var wire 1 L Y $end
$upscope $end
$scope module _115_ $end
$var wire 1 e A $end
$var wire 1 L B $end
$var wire 1 K Y $end
$upscope $end
$scope module _116_ $end
$var wire 1 h A $end
$var wire 1 >" B $end
$var wire 1 J Y $end
$upscope $end
$scope module _117_ $end
$var wire 1 h A $end
$var wire 1 _ B $end
$var wire 1 I Y $end
$upscope $end
$scope module _118_ $end
$var wire 1 e A $end
$var wire 1 J B $end
$var wire 1 H Y $end
$upscope $end
$scope module _119_ $end
$var wire 1 I A $end
$var wire 1 H B $end
$var wire 1 G Y $end
$upscope $end
$scope module _120_ $end
$var wire 1 K A $end
$var wire 1 G B $end
$var wire 1 F Y $end
$upscope $end
$scope module _121_ $end
$var wire 1 ?" A $end
$var wire 1 F B $end
$var wire 1 E Y $end
$upscope $end
$scope module _122_ $end
$var wire 1 Y A $end
$var wire 1 O B $end
$var wire 1 D Y $end
$upscope $end
$scope module _123_ $end
$var wire 1 E A $end
$var wire 1 D B $end
$var wire 1 C Y $end
$upscope $end
$scope module _124_ $end
$var wire 1 Z A $end
$var wire 1 C B $end
$var wire 1 B Y $end
$upscope $end
$scope module _125_ $end
$var wire 1 B B $end
$var wire 1 (" Y $end
$var wire 1 $ A $end
$upscope $end
$scope module _126_ $end
$var wire 1 @" A $end
$var wire 1 A" B $end
$var wire 1 A Y $end
$upscope $end
$scope module _127_ $end
$var wire 1 e A $end
$var wire 1 A B $end
$var wire 1 @ Y $end
$upscope $end
$scope module _128_ $end
$var wire 1 f A $end
$var wire 1 Y B $end
$var wire 1 ? Y $end
$upscope $end
$scope module _129_ $end
$var wire 1 @ A $end
$var wire 1 ? B $end
$var wire 1 &" Y $end
$upscope $end
$scope module _130_ $end
$var wire 1 B" B $end
$var wire 1 > Y $end
$var wire 1 . A $end
$upscope $end
$scope module _131_ $end
$var wire 1 > A $end
$var wire 1 = Y $end
$upscope $end
$scope module _132_ $end
$var wire 1 C" B $end
$var wire 1 < Y $end
$var wire 1 . A $end
$upscope $end
$scope module _133_ $end
$var wire 1 < A $end
$var wire 1 ; Y $end
$upscope $end
$scope module _134_ $end
$var wire 1 ; B $end
$var wire 1 : Y $end
$var wire 1 $ A $end
$upscope $end
$scope module _135_ $end
$var wire 1 = A $end
$var wire 1 : B $end
$var wire 1 D" Y $end
$upscope $end
$scope module _136_ $end
$var wire 1 d A $end
$var wire 1 > B $end
$var wire 1 9 Y $end
$upscope $end
$scope module _137_ $end
$var wire 1 d A $end
$var wire 1 > B $end
$var wire 1 8 Y $end
$upscope $end
$scope module _138_ $end
$var wire 1 8 B $end
$var wire 1 7 Y $end
$var wire 1 $ A $end
$upscope $end
$scope module _139_ $end
$var wire 1 9 A $end
$var wire 1 7 B $end
$var wire 1 E" Y $end
$upscope $end
$scope module _140_ $end
$var wire 1 F" A $end
$var wire 1 9 B $end
$var wire 1 6 Y $end
$upscope $end
$scope module _141_ $end
$var wire 1 G" A $end
$var wire 1 9 B $end
$var wire 1 5 Y $end
$upscope $end
$scope module _142_ $end
$var wire 1 5 B $end
$var wire 1 4 Y $end
$var wire 1 $ A $end
$upscope $end
$scope module _143_ $end
$var wire 1 6 A $end
$var wire 1 4 B $end
$var wire 1 H" Y $end
$upscope $end
$scope module _144_ $end
$var wire 1 I" A $end
$var wire 1 4 B $end
$var wire 1 3 Y $end
$upscope $end
$scope module _145_ $end
$var wire 1 3 A $end
$var wire 1 J" Y $end
$upscope $end
$scope module _146_ $end
$var wire 1 ` B $end
$var wire 1 2 Y $end
$var wire 1 . A $end
$upscope $end
$scope module _147_ $end
$var wire 1 %" Y $end
$var wire 1 # B $end
$var wire 1 . A $end
$upscope $end
$scope module _148_ $end
$var wire 1 c A $end
$var wire 1 %" B $end
$var wire 1 $" Y $end
$upscope $end
$scope module _149_ $end
$var wire 1 2 A $end
$var wire 1 $" B $end
$var wire 1 #" Y $end
$upscope $end
$scope module _150_ $end
$var wire 1 #" B $end
$var wire 1 K" Y $end
$var wire 1 $ A $end
$upscope $end
$scope module _151_ $end
$var wire 1 _ B $end
$var wire 1 "" Y $end
$var wire 1 . A $end
$upscope $end
$scope module _152_ $end
$var wire 1 b A $end
$var wire 1 %" B $end
$var wire 1 !" Y $end
$upscope $end
$scope module _153_ $end
$var wire 1 "" A $end
$var wire 1 !" B $end
$var wire 1 ~ Y $end
$upscope $end
$scope module _154_ $end
$var wire 1 ~ B $end
$var wire 1 L" Y $end
$var wire 1 $ A $end
$upscope $end
$scope module _155_ $end
$var wire 1 M" A $end
$var wire 1 %" B $end
$var wire 1 } Y $end
$upscope $end
$scope module _156_ $end
$var wire 1 g A $end
$var wire 1 ^ B $end
$var wire 1 | Y $end
$upscope $end
$scope module _157_ $end
$var wire 1 f A $end
$var wire 1 | B $end
$var wire 1 { Y $end
$upscope $end
$scope module _158_ $end
$var wire 1 } A $end
$var wire 1 { B $end
$var wire 1 N" Y $end
$upscope $end
$scope module _159_ $end
$var wire 1 O" A $end
$var wire 1 %" B $end
$var wire 1 z Y $end
$upscope $end
$scope module _160_ $end
$var wire 1 g A $end
$var wire 1 ] B $end
$var wire 1 y Y $end
$upscope $end
$scope module _161_ $end
$var wire 1 f A $end
$var wire 1 y B $end
$var wire 1 x Y $end
$upscope $end
$scope module _162_ $end
$var wire 1 z A $end
$var wire 1 x B $end
$var wire 1 P" Y $end
$upscope $end
$scope module _163_ $end
$var wire 1 Q" A $end
$var wire 1 %" B $end
$var wire 1 w Y $end
$upscope $end
$scope module _164_ $end
$var wire 1 R" B $end
$var wire 1 v Y $end
$var wire 1 . A $end
$upscope $end
$scope module _165_ $end
$var wire 1 w B $end
$var wire 1 u Y $end
$var wire 1 $ A $end
$upscope $end
$scope module _166_ $end
$var wire 1 u A $end
$var wire 1 t Y $end
$upscope $end
$scope module _167_ $end
$var wire 1 v A $end
$var wire 1 t B $end
$var wire 1 S" Y $end
$upscope $end
$scope module _168_ $end
$var wire 1 T" A $end
$var wire 1 %" B $end
$var wire 1 s Y $end
$upscope $end
$scope module _169_ $end
$var wire 1 U" B $end
$var wire 1 r Y $end
$var wire 1 . A $end
$upscope $end
$scope module _170_ $end
$var wire 1 s B $end
$var wire 1 q Y $end
$var wire 1 $ A $end
$upscope $end
$scope module _171_ $end
$var wire 1 q A $end
$var wire 1 p Y $end
$upscope $end
$scope module _172_ $end
$var wire 1 r A $end
$var wire 1 p B $end
$var wire 1 V" Y $end
$upscope $end
$scope module _173_ $end
$var wire 1 \ B $end
$var wire 1 o Y $end
$var wire 1 . A $end
$upscope $end
$scope module _174_ $end
$var wire 1 a A $end
$var wire 1 %" B $end
$var wire 1 n Y $end
$upscope $end
$scope module _175_ $end
$var wire 1 o A $end
$var wire 1 n B $end
$var wire 1 m Y $end
$upscope $end
$scope module _176_ $end
$var wire 1 m B $end
$var wire 1 W" Y $end
$var wire 1 $ A $end
$upscope $end
$scope module _177_ $end
$var wire 1 X" A $end
$var wire 1 %" B $end
$var wire 1 l Y $end
$upscope $end
$scope module _178_ $end
$var wire 1 Y" B $end
$var wire 1 k Y $end
$var wire 1 . A $end
$upscope $end
$scope module _179_ $end
$var wire 1 l B $end
$var wire 1 j Y $end
$var wire 1 $ A $end
$upscope $end
$scope module _180_ $end
$var wire 1 j A $end
$var wire 1 i Y $end
$upscope $end
$scope module _181_ $end
$var wire 1 k A $end
$var wire 1 i B $end
$var wire 1 Z" Y $end
$upscope $end
$scope module _182_ $end
$var wire 1 [" D $end
$var wire 1 ) C $end
$var reg 1 \" Q $end
$upscope $end
$scope module _183_ $end
$var wire 1 ]" D $end
$var wire 1 ) C $end
$var reg 1 ^" Q $end
$upscope $end
$scope module _184_ $end
$var wire 1 _" D $end
$var wire 1 ) C $end
$var reg 1 `" Q $end
$upscope $end
$scope module _185_ $end
$var wire 1 a" D $end
$var wire 1 ) C $end
$var reg 1 b" Q $end
$upscope $end
$scope module _186_ $end
$var wire 1 c" D $end
$var wire 1 ) C $end
$var reg 1 d" Q $end
$upscope $end
$scope module _187_ $end
$var wire 1 e" D $end
$var wire 1 ) C $end
$var reg 1 f" Q $end
$upscope $end
$scope module _188_ $end
$var wire 1 g" D $end
$var wire 1 ) C $end
$var reg 1 h" Q $end
$upscope $end
$scope module _189_ $end
$var wire 1 i" D $end
$var wire 1 ) C $end
$var reg 1 j" Q $end
$upscope $end
$scope module _190_ $end
$var wire 1 k" D $end
$var wire 1 ) C $end
$var reg 1 l" Q $end
$upscope $end
$scope module _191_ $end
$var wire 1 m" D $end
$var wire 1 ) C $end
$var reg 1 n" Q $end
$upscope $end
$scope module _192_ $end
$var wire 1 o" D $end
$var wire 1 ) C $end
$var reg 1 p" Q $end
$upscope $end
$scope module _193_ $end
$var wire 1 q" D $end
$var wire 1 ) C $end
$var reg 1 r" Q $end
$upscope $end
$scope module _194_ $end
$var wire 1 &" D $end
$var wire 1 ) C $end
$var reg 1 . Q $end
$upscope $end
$scope module _195_ $end
$var wire 1 (" D $end
$var wire 1 ) C $end
$var reg 1 % Q $end
$upscope $end
$upscope $end
$scope module probador $end
$var wire 1 & data_out $end
$var wire 1 % data_out_sintetizado $end
$var reg 1 ) clk_32f $end
$var reg 1 ( clk_4f $end
$var reg 8 s" data_in [7:0] $end
$var reg 1 $ reset $end
$var reg 1 # valid_in $end
$upscope $end
$upscope $end
$scope module DFFSR $end
$var wire 1 t" C $end
$var wire 1 u" D $end
$var wire 1 v" R $end
$var wire 1 w" S $end
$var reg 1 x" Q $end
$upscope $end
$enddefinitions $end
#0
$dumpvars
xx"
zw"
zv"
zu"
zt"
b0 s"
0r"
0q"
1p"
1o"
1n"
1m"
1l"
1k"
0j"
0i"
0h"
0g"
0f"
0e"
0d"
0c"
0b"
0a"
0`"
0_"
0^"
0]"
0\"
0["
0Z"
0Y"
0X"
0W"
0V"
0U"
0T"
0S"
0R"
0Q"
0P"
0O"
0N"
0M"
0L"
0K"
0J"
0I"
1H"
1G"
1F"
1E"
1D"
1C"
1B"
1A"
1@"
1?"
0>"
0="
0<"
1;"
1:"
19"
18"
17"
06"
05"
04"
03"
02"
01"
00"
0/"
0."
0-"
1,"
1+"
1*"
b0 )"
0("
b111 '"
0&"
1%"
0$"
1#"
0""
0!"
1~
0}
0|
1{
0z
0y
1x
0w
1v
0u
1t
0s
1r
0q
1p
0o
0n
1m
0l
1k
0j
1i
0h
1g
0f
0e
0d
1c
1b
1a
1`
1_
1^
1]
1\
1[
0Z
1Y
1X
1W
0V
0U
1T
0S
1R
0Q
1P
0O
0N
1M
0L
1K
1J
1I
0H
1G
0F
0E
1D
0C
1B
0A
1@
1?
0>
1=
1<
0;
0:
19
18
07
06
05
04
13
02
b0 1
b0 0
b111 /
0.
0-
b111 ,
b0 +
b0 *
1)
0(
b0 '
0&
0%
1$
0#
z"
z!
$end
#4
0)
#8
1)
#12
0)
#16
1)
#20
0)
#24
1)
#28
0)
#32
0k"
b110 '"
0D"
0i
0p
0t
0?
1j
1q
1u
14
1:
1f
0$
1)
1(
#36
0)
#40
0m"
0E"
1k"
17
b101 '"
1D"
08
0=
1>
1V
1e
0C"
0B"
09"
07"
0+"
b110 /
0l"
b110 ,
1)
#44
0)
#48
1o"
1H"
0k"
0m"
0D"
b100 '"
0E"
06
0D
1=
19
0>
0V
1E
1O
0e
1d
1C"
1B"
19"
17"
1+"
0A"
0?"
0:"
0,"
b101 ,
1l"
b101 /
0n"
1)
#52
0)
#56
0o"
0H"
1m"
1k"
1E"
16
b11 '"
1D"
09
0=
1>
1V
1e
0C"
0B"
09"
07"
0+"
b100 /
0l"
b100 ,
1)
#60
0)
#64
0("
0o"
0k"
07
1P
1B
1m"
0H"
0D"
b10 '"
1E"
1H
18
0U
0C
1D
14
1=
19
0X
0W
0T
0M
0J
0I
0>
1V
0E
0O
05
1N
1S
0e
0d
1h
1C"
1B"
19"
17"
1+"
1A"
1?"
1:"
1,"
0G"
0F"
0@"
0;"
08"
0*"
b11 ,
1l"
1n"
b11 /
0p"
1)
0(
#68
0)
#72
0m"
0E"
1k"
17
b1 '"
1D"
08
0=
0H
1>
1e
0C"
0B"
09"
07"
0+"
b10 /
0l"
b10 ,
1)
#76
0)
#80
0o"
0H"
14
0k"
0m"
0D"
b0 '"
0E"
05
0D
1=
1H
19
0>
1A
1E
1O
0e
1d
1C"
1B"
19"
17"
1+"
0A"
0?"
0:"
0,"
b1 ,
1l"
b1 /
0n"
1)
#84
0)
#88
1o"
1H"
04
1m"
1k"
1E"
15
b111 '"
1D"
1&"
09
0=
0H
0@
1>
1e
0C"
0B"
09"
07"
0+"
b0 /
0l"
b0 ,
1)
#92
0)
#96
1g"
1]"
1["
0F
1_"
1a"
1W"
1L"
1K"
1m"
1N"
1P"
0:
0V
1G
1k"
1E"
06
07
0&"
0m
0~
0#"
14
1i"
1e"
1c"
b111 '"
1D"
0{
0x
1;
0H
1@
1X
1W
1T
1M
1J
1I
1Z"
1V"
b11111111 )"
1S"
19
18
1D
1?
1n
1!"
1$"
0<
0E
0O
05
0A
0N
0S
1=
1|
1y
0e
0d
0h
0k
0r
0v
0>
0Y
0%"
0a
0b
0c
1C"
1B"
19"
17"
1+"
1A"
1?"
1:"
1,"
1G"
1F"
1@"
1;"
18"
1*"
0g
1X"
1T"
1Q"
1O"
1M"
1/"
1."
1-"
1-
b111 ,
1l"
1n"
b111 /
1p"
1.
1#
b11111111 '
b11111111 *
b11111111 0
b11111111 s"
1)
1(
#100
0)
#104
1("
0B
1C
0D
1O
1F
0k"
b110 '"
0D"
0P
0G
0R
1:
1U
1H
1L
0$"
0!"
0n
0?
1S
1o
1""
12
0;
0X
0J
0M
1%"
1<
1Y
0\
0]
0^
0_
0`
1g
1Y"
16"
14"
1U"
1>"
1R"
1="
13"
12"
11"
1<"
10"
0.
1j"
1h"
1f"
1d"
1b"
1`"
1^"
b11111111 1
1\"
0-
b11111111 +
1)
#108
0)
#112
0m"
0E"
1k"
17
b101 '"
1D"
1G
08
0U
0=
0K
0H
1>
1Q
1V
1e
0C"
0B"
09"
07"
0+"
b110 ,
1&
b110 /
0l"
1%
1)
#116
0)
#120
1("
0B
1C
0E
0k"
b100 '"
0D"
1F
0G
0P
1U
1=
1K
1H
0>
0Q
0V
1d
0e
0A"
0?"
0:"
0,"
1C"
1B"
19"
17"
1+"
0n"
b101 /
1l"
b101 ,
1)
#124
0)
#128
0o"
0H"
1m"
1k"
1E"
16
b11 '"
1D"
1G
09
0U
0=
0K
0H
1>
1Q
1V
1e
0C"
0B"
09"
07"
0+"
b100 ,
b100 /
0l"
1)
0(
#132
0)
#136
1("
0B
1C
0D
0o"
0H"
1m"
0k"
1O
1E"
07
b10 '"
0D"
1F
0G
14
0P
1U
19
18
1=
1K
1H
05
0>
0Q
0V
1h
0d
0e
0G"
0F"
0@"
0;"
08"
0*"
1A"
1?"
1:"
1,"
1C"
1B"
19"
17"
1+"
0p"
1n"
b11 /
1l"
b11 ,
1)
#140
0)
#144
0m"
0E"
1k"
17
b1 '"
1D"
1G
08
0U
0=
0K
0H
1>
1Q
1V
1e
0C"
0B"
09"
07"
0+"
b10 ,
b10 /
0l"
1)
#148
0)
#152
1("
0B
1C
0E
0k"
b0 '"
0D"
1F
0G
0P
1U
1=
1K
1H
1A
0>
0Q
0V
1d
0e
0A"
0?"
0:"
0,"
1C"
1B"
19"
17"
1+"
0n"
b1 /
1l"
b1 ,
1)
#156
0)
#160
1o"
1H"
04
1m"
1k"
1E"
15
b111 '"
1D"
1G
1&"
09
0U
0=
0K
0H
0@
1>
1Q
1V
1e
1c
0C"
0B"
09"
07"
0+"
0Q"
0-"
b0 ,
b0 /
0l"
b11101110 '
b11101110 *
b11101110 0
b11101110 s"
1)
1(
#164
0)
#168
0c"
0S"
1g"
1]"
1t
0["
1m"
1O
1W"
1L"
0u
b11101110 )"
0K"
1k"
0C
1E"
06
07
1F
0G
0&"
0:
b111 '"
1D"
14
0P
1U
0m
0~
1!"
1w
1n
1#"
1D
1?
19
18
1K
1H
1@
1;
1=
1Z
05
0A
0Q
0V
0o
0""
0%"
02
0<
0>
0Y
0[
0h
0d
0e
0g
1G"
1F"
1@"
1;"
18"
1*"
1A"
1?"
1:"
1,"
1C"
1B"
19"
17"
1+"
1.
1p"
1n"
b111 /
1l"
1-
b111 ,
1)
#172
0)
#176
0k"
0t
0["
b110 '"
0D"
1("
1u
b11101110 )"
0K"
1C
0L
1:
0B
0!"
0w
0n
1#"
0D
0?
1v
1M
0;
0Z
1`
1o
1""
1%"
02
1<
1Y
1[
0<"
00"
0R"
0="
1g
0-
b11101110 +
0\"
b11101110 1
0d"
0.
1)
#180
0)
#184
0m"
0E"
0F
1k"
17
b101 '"
1D"
1G
08
0U
0=
0H
1>
1Q
1V
1e
0C"
0B"
09"
07"
0+"
b110 /
0l"
b110 ,
1)
#188
0)
#192
1("
1o"
1F
1H"
0k"
0B
0m"
0D"
0G
b100 '"
0E"
06
0P
1U
1C
1=
1H
19
0>
0Q
0V
0E
0e
1d
1C"
1B"
19"
17"
1+"
0A"
0?"
0:"
0,"
b101 ,
1l"
b101 /
0n"
1)
0(
#196
0)
#200
0("
1B
0C
0o"
1E
0H"
1m"
0F
1k"
1E"
16
b11 '"
1D"
1G
09
0U
0=
0H
1>
1Q
1V
1e
0C"
0B"
09"
07"
0+"
b100 /
0l"
b100 ,
1)
#204
0)
#208
0D
1("
1F
0o"
0k"
07
1O
0B
1m"
0H"
0D"
0G
b10 '"
1E"
18
0P
1U
1C
14
1=
1H
19
0M
0>
0Q
0V
0E
05
1N
0e
0d
1h
1C"
1B"
19"
17"
1+"
1A"
1?"
1:"
1,"
0G"
0F"
0@"
0;"
08"
0*"
b11 ,
0&
1l"
1n"
b11 /
0p"
0%
1)
#212
0)
#216
0m"
0E"
0F
1k"
17
b1 '"
1D"
1G
08
0U
0=
0H
1>
1Q
1V
1e
0C"
0B"
09"
07"
0+"
1%
b10 /
0l"
b10 ,
1&
1)
#220
0)
#224
0o"
0H"
1("
1F
14
0k"
0B
0m"
0D"
0G
b0 '"
0E"
05
0P
1U
1C
1=
1H
19
0>
0Q
0V
1A
0E
0e
1d
1a
1C"
1B"
19"
17"
1+"
0A"
0?"
0:"
0,"
0M"
0/"
b1 ,
1l"
b1 /
0n"
b10101010 '
b10101010 *
b10101010 0
b10101010 s"
0#
1)
1(
#228
0)
#232
0("
1B
1o"
0C
1H"
1E
04
1m"
0F
1k"
1E"
15
b111 '"
1D"
1G
1&"
09
0U
0=
0H
0@
1>
1Q
1V
1e
0C"
0B"
09"
07"
0+"
b0 /
0l"
b0 ,
1)
#236
0)
#240
1F
1O
0g"
0]"
1m"
0:
0G
0W"
0L"
1k"
1E"
06
07
0&"
0P
1U
14
1c"
b111 '"
1D"
1;
1H
1@
1M
1m
b10111100 )"
1S"
1~
19
18
1D
1?
0<
0Q
0V
0E
05
0A
0N
1=
0e
0d
0h
0o
0v
0""
0>
0Y
1C"
1B"
19"
17"
1+"
1A"
1?"
1:"
1,"
1G"
1F"
1@"
1;"
18"
1*"
0g
1-
b111 ,
0&
1l"
1n"
b111 /
1p"
1.
0%
1)
#244
0)
#248
1("
0k"
0B
0g"
0]"
b110 '"
0D"
0W"
b10111100 )"
0L"
1C
1R
1:
1L
1m
1~
0D
0?
0S
0;
0M
0o
0""
1<
1Y
1\
1_
1g
04"
1R"
1="
01"
0.
0h"
1d"
b10111100 1
0^"
b10111100 +
0-
1)
#252
0)
#256
0("
1B
0C
1D
0m"
0E"
0O
1k"
17
1P
b101 '"
1D"
1G
08
0U
0=
0K
0H
1>
1V
1e
0C"
0B"
09"
07"
0+"
b110 ,
1&
b110 /
0l"
1%
1)
0(
#260
0)
#264
1("
0B
0E
1C
0k"
0P
b100 '"
0D"
1F
0G
0D
1U
1=
1K
1H
1O
0>
0V
1d
0e
0A"
0?"
0:"
0,"
1C"
1B"
19"
17"
1+"
0%
0n"
b101 /
1l"
b101 ,
0&
1)
#268
0)
#272
0o"
0H"
1m"
1k"
1E"
16
1P
b11 '"
1D"
1G
09
0U
0=
0K
0H
1>
1V
1e
0C"
0B"
09"
07"
0+"
b100 ,
1&
b100 /
0l"
1%
1)
#276
0)
#280
1("
0B
0o"
0H"
1C
1m"
0k"
0P
1E"
07
b10 '"
0D"
0F
14
0L
0R
0D
1U
0I
19
18
1=
1K
1H
05
1N
1S
1O
0>
0V
1h
0d
0e
0G"
0F"
0@"
0;"
08"
0*"
1A"
1?"
1:"
1,"
1C"
1B"
19"
17"
1+"
0p"
1n"
b11 /
1l"
b11 ,
1)
#284
0)
#288
0m"
0E"
1k"
17
b1 '"
1D"
08
0U
0=
0H
1>
1Q
1V
1e
0C"
0B"
09"
07"
0+"
b10 ,
b10 /
0l"
1)
1(
#292
0)
#296
0("
1B
0k"
b0 '"
0D"
0C
0P
1U
1=
1H
1A
1E
0>
0Q
0V
1d
0e
0A"
0?"
0:"
0,"
1C"
1B"
19"
17"
1+"
0n"
b1 /
1l"
b1 ,
1)
