Proyecto1/32bto8b/32bto8b.vcd
$date
	Fri Oct 22 17:21:00 2021
$end
$version
	Icarus Verilog
$end
$timescale
	1ns
$end
$scope module BUF $end
$var wire 1 ! A $end
$var wire 1 " Y $end
$upscope $end
$scope module DFFSR $end
$var wire 1 # C $end
$var wire 1 $ D $end
$var wire 1 % R $end
$var wire 1 & S $end
$var reg 1 ' Q $end
$upscope $end
$scope module test8bto32b $end
$var wire 1 ( valid_out_struct $end
$var wire 1 ) valid_out $end
$var wire 1 * valid_0 $end
$var wire 8 + data_out_struct [7:0] $end
$var wire 8 , data_out [7:0] $end
$var wire 32 - data_in [31:0] $end
$var wire 1 . clk_f $end
$var wire 1 / clk_4f $end
$var wire 1 0 clk_2f $end
$scope module paso32bto8bInst $end
$var wire 1 * valid_0 $end
$var wire 32 1 data_in [31:0] $end
$var wire 1 . clk_f $end
$var wire 1 / clk_4f $end
$var wire 1 0 clk_2f $end
$var reg 8 2 data_out [7:0] $end
$var reg 4 3 indice [3:0] $end
$var reg 1 4 validTemp $end
$var reg 1 ) valid_out $end
$var reg 8 5 valorTrans [7:0] $end
$upscope $end
$scope module probador32bto8bIns $end
$var wire 8 6 data_out [7:0] $end
$var wire 1 ) valid_out $end
$var reg 1 0 clk_2f $end
$var reg 1 / clk_4f $end
$var reg 1 . clk_f $end
$var reg 32 7 data_in [31:0] $end
$var reg 1 * valid_0 $end
$upscope $end
$scope module struc_32bto8bIns $end
$var wire 1 0 clk_2f $end
$var wire 1 / clk_4f $end
$var wire 1 . clk_f $end
$var wire 32 8 data_in [31:0] $end
$var wire 1 * valid_0 $end
$var wire 8 9 valorTrans [7:0] $end
$var wire 1 ( valid_out $end
$var wire 1 : validTemp $end
$var wire 4 ; indice [3:0] $end
$var wire 8 < data_out [7:0] $end
$var wire 1 = _078_ $end
$var wire 1 > _077_ $end
$var wire 1 ? _076_ $end
$var wire 1 @ _075_ $end
$var wire 1 A _074_ $end
$var wire 1 B _073_ $end
$var wire 1 C _072_ $end
$var wire 1 D _071_ $end
$var wire 1 E _070_ $end
$var wire 1 F _069_ $end
$var wire 1 G _068_ $end
$var wire 1 H _067_ $end
$var wire 1 I _066_ $end
$var wire 1 J _065_ $end
$var wire 1 K _064_ $end
$var wire 1 L _063_ $end
$var wire 1 M _062_ $end
$var wire 1 N _061_ $end
$var wire 1 O _060_ $end
$var wire 1 P _059_ $end
$var wire 1 Q _058_ $end
$var wire 1 R _057_ $end
$var wire 1 S _056_ $end
$var wire 1 T _055_ $end
$var wire 1 U _054_ $end
$var wire 1 V _053_ $end
$var wire 1 W _052_ $end
$var wire 1 X _051_ $end
$var wire 1 Y _050_ $end
$var wire 1 Z _049_ $end
$var wire 1 [ _048_ $end
$var wire 1 \ _047_ $end
$var wire 1 ] _046_ $end
$var wire 1 ^ _045_ $end
$var wire 1 _ _044_ $end
$var wire 1 ` _043_ $end
$var wire 1 a _042_ $end
$var wire 1 b _041_ $end
$var wire 1 c _040_ $end
$var wire 1 d _039_ $end
$var wire 1 e _038_ $end
$var wire 1 f _037_ $end
$var wire 1 g _036_ $end
$var wire 1 h _035_ $end
$var wire 1 i _034_ $end
$var wire 1 j _033_ $end
$var wire 1 k _032_ $end
$var wire 1 l _031_ $end
$var wire 1 m _030_ $end
$var wire 1 n _029_ $end
$var wire 1 o _028_ $end
$var wire 1 p _027_ $end
$var wire 1 q _026_ $end
$var wire 1 r _025_ $end
$var wire 1 s _024_ $end
$var wire 1 t _023_ $end
$var wire 1 u _022_ $end
$var wire 1 v _021_ $end
$var wire 1 w _020_ $end
$var wire 1 x _019_ $end
$var wire 1 y _018_ $end
$var wire 1 z _017_ $end
$var wire 1 { _016_ $end
$var wire 1 | _015_ $end
$var wire 1 } _014_ $end
$var wire 1 ~ _013_ $end
$var wire 1 !" _012_ $end
$var wire 1 "" _011_ $end
$var wire 1 #" _010_ $end
$var wire 1 $" _009_ $end
$var wire 1 %" _008_ $end
$var wire 1 &" _007_ $end
$var wire 1 '" _006_ $end
$var wire 1 (" _005_ $end
$var wire 1 )" _004_ $end
$var wire 1 *" _003_ $end
$var wire 8 +" _002_ [7:0] $end
$var wire 1 ," _001_ $end
$var wire 4 -" _000_ [3:0] $end
$scope module _079_ $end
$var wire 1 ." A $end
$var wire 1 \ Y $end
$upscope $end
$scope module _080_ $end
$var wire 1 /" A $end
$var wire 1 [ Y $end
$upscope $end
$scope module _081_ $end
$var wire 1 0" A $end
$var wire 1 Z Y $end
$upscope $end
$scope module _082_ $end
$var wire 1 1" A $end
$var wire 1 Y Y $end
$upscope $end
$scope module _083_ $end
$var wire 1 2" A $end
$var wire 1 X Y $end
$upscope $end
$scope module _084_ $end
$var wire 1 3" A $end
$var wire 1 W Y $end
$upscope $end
$scope module _085_ $end
$var wire 1 4" A $end
$var wire 1 V Y $end
$upscope $end
$scope module _086_ $end
$var wire 1 5" A $end
$var wire 1 U Y $end
$upscope $end
$scope module _087_ $end
$var wire 1 6" A $end
$var wire 1 T Y $end
$upscope $end
$scope module _088_ $end
$var wire 1 / A $end
$var wire 1 *" Y $end
$upscope $end
$scope module _089_ $end
$var wire 1 7" A $end
$var wire 1 8" B $end
$var wire 1 S Y $end
$upscope $end
$scope module _090_ $end
$var wire 1 * A $end
$var wire 1 S B $end
$var wire 1 R Y $end
$upscope $end
$scope module _091_ $end
$var wire 1 R A $end
$var wire 1 ," Y $end
$upscope $end
$scope module _092_ $end
$var wire 1 9" A $end
$var wire 1 R B $end
$var wire 1 :" Y $end
$upscope $end
$scope module _093_ $end
$var wire 1 ;" A $end
$var wire 1 Q Y $end
$upscope $end
$scope module _094_ $end
$var wire 1 <" A $end
$var wire 1 =" B $end
$var wire 1 P Y $end
$upscope $end
$scope module _095_ $end
$var wire 1 >" A $end
$var wire 1 \ B $end
$var wire 1 O Y $end
$upscope $end
$scope module _096_ $end
$var wire 1 R A $end
$var wire 1 O B $end
$var wire 1 N Y $end
$upscope $end
$scope module _097_ $end
$var wire 1 N A $end
$var wire 1 M Y $end
$upscope $end
$scope module _098_ $end
$var wire 1 P A $end
$var wire 1 M B $end
$var wire 1 ?" Y $end
$upscope $end
$scope module _099_ $end
$var wire 1 [ A $end
$var wire 1 P B $end
$var wire 1 L Y $end
$upscope $end
$scope module _100_ $end
$var wire 1 @" A $end
$var wire 1 Q B $end
$var wire 1 K Y $end
$upscope $end
$scope module _101_ $end
$var wire 1 A" A $end
$var wire 1 K B $end
$var wire 1 J Y $end
$upscope $end
$scope module _102_ $end
$var wire 1 B" A $end
$var wire 1 C" B $end
$var wire 1 I Y $end
$upscope $end
$scope module _103_ $end
$var wire 1 R A $end
$var wire 1 I B $end
$var wire 1 H Y $end
$upscope $end
$scope module _104_ $end
$var wire 1 D" A $end
$var wire 1 H B $end
$var wire 1 G Y $end
$upscope $end
$scope module _105_ $end
$var wire 1 E" A $end
$var wire 1 N B $end
$var wire 1 F Y $end
$upscope $end
$scope module _106_ $end
$var wire 1 G A $end
$var wire 1 F B $end
$var wire 1 E Y $end
$upscope $end
$scope module _107_ $end
$var wire 1 L A $end
$var wire 1 E B $end
$var wire 1 D Y $end
$upscope $end
$scope module _108_ $end
$var wire 1 J A $end
$var wire 1 D B $end
$var wire 1 F" Y $end
$upscope $end
$scope module _109_ $end
$var wire 1 G" A $end
$var wire 1 K B $end
$var wire 1 C Y $end
$upscope $end
$scope module _110_ $end
$var wire 1 Z A $end
$var wire 1 P B $end
$var wire 1 B Y $end
$upscope $end
$scope module _111_ $end
$var wire 1 H" A $end
$var wire 1 H B $end
$var wire 1 A Y $end
$upscope $end
$scope module _112_ $end
$var wire 1 I" A $end
$var wire 1 N B $end
$var wire 1 @ Y $end
$upscope $end
$scope module _113_ $end
$var wire 1 A A $end
$var wire 1 @ B $end
$var wire 1 ? Y $end
$upscope $end
$scope module _114_ $end
$var wire 1 B A $end
$var wire 1 ? B $end
$var wire 1 > Y $end
$upscope $end
$scope module _115_ $end
$var wire 1 C A $end
$var wire 1 > B $end
$var wire 1 J" Y $end
$upscope $end
$scope module _116_ $end
$var wire 1 K" A $end
$var wire 1 K B $end
$var wire 1 = Y $end
$upscope $end
$scope module _117_ $end
$var wire 1 Y A $end
$var wire 1 P B $end
$var wire 1 !" Y $end
$upscope $end
$scope module _118_ $end
$var wire 1 L" A $end
$var wire 1 N B $end
$var wire 1 ~ Y $end
$upscope $end
$scope module _119_ $end
$var wire 1 M" A $end
$var wire 1 H B $end
$var wire 1 } Y $end
$upscope $end
$scope module _120_ $end
$var wire 1 ~ A $end
$var wire 1 } B $end
$var wire 1 | Y $end
$upscope $end
$scope module _121_ $end
$var wire 1 !" A $end
$var wire 1 | B $end
$var wire 1 { Y $end
$upscope $end
$scope module _122_ $end
$var wire 1 = A $end
$var wire 1 { B $end
$var wire 1 N" Y $end
$upscope $end
$scope module _123_ $end
$var wire 1 O" A $end
$var wire 1 K B $end
$var wire 1 z Y $end
$upscope $end
$scope module _124_ $end
$var wire 1 X A $end
$var wire 1 P B $end
$var wire 1 y Y $end
$upscope $end
$scope module _125_ $end
$var wire 1 P" A $end
$var wire 1 H B $end
$var wire 1 x Y $end
$upscope $end
$scope module _126_ $end
$var wire 1 Q" A $end
$var wire 1 N B $end
$var wire 1 w Y $end
$upscope $end
$scope module _127_ $end
$var wire 1 x A $end
$var wire 1 w B $end
$var wire 1 v Y $end
$upscope $end
$scope module _128_ $end
$var wire 1 y A $end
$var wire 1 v B $end
$var wire 1 u Y $end
$upscope $end
$scope module _129_ $end
$var wire 1 z A $end
$var wire 1 u B $end
$var wire 1 R" Y $end
$upscope $end
$scope module _130_ $end
$var wire 1 S" A $end
$var wire 1 K B $end
$var wire 1 t Y $end
$upscope $end
$scope module _131_ $end
$var wire 1 W A $end
$var wire 1 P B $end
$var wire 1 s Y $end
$upscope $end
$scope module _132_ $end
$var wire 1 T" A $end
$var wire 1 H B $end
$var wire 1 r Y $end
$upscope $end
$scope module _133_ $end
$var wire 1 U" A $end
$var wire 1 N B $end
$var wire 1 q Y $end
$upscope $end
$scope module _134_ $end
$var wire 1 r A $end
$var wire 1 q B $end
$var wire 1 p Y $end
$upscope $end
$scope module _135_ $end
$var wire 1 s A $end
$var wire 1 p B $end
$var wire 1 o Y $end
$upscope $end
$scope module _136_ $end
$var wire 1 t A $end
$var wire 1 o B $end
$var wire 1 V" Y $end
$upscope $end
$scope module _137_ $end
$var wire 1 W" A $end
$var wire 1 K B $end
$var wire 1 n Y $end
$upscope $end
$scope module _138_ $end
$var wire 1 V A $end
$var wire 1 P B $end
$var wire 1 m Y $end
$upscope $end
$scope module _139_ $end
$var wire 1 X" A $end
$var wire 1 H B $end
$var wire 1 l Y $end
$upscope $end
$scope module _140_ $end
$var wire 1 Y" A $end
$var wire 1 N B $end
$var wire 1 k Y $end
$upscope $end
$scope module _141_ $end
$var wire 1 l A $end
$var wire 1 k B $end
$var wire 1 j Y $end
$upscope $end
$scope module _142_ $end
$var wire 1 m A $end
$var wire 1 j B $end
$var wire 1 i Y $end
$upscope $end
$scope module _143_ $end
$var wire 1 n A $end
$var wire 1 i B $end
$var wire 1 Z" Y $end
$upscope $end
$scope module _144_ $end
$var wire 1 [" A $end
$var wire 1 K B $end
$var wire 1 h Y $end
$upscope $end
$scope module _145_ $end
$var wire 1 U A $end
$var wire 1 P B $end
$var wire 1 g Y $end
$upscope $end
$scope module _146_ $end
$var wire 1 \" A $end
$var wire 1 H B $end
$var wire 1 f Y $end
$upscope $end
$scope module _147_ $end
$var wire 1 ]" A $end
$var wire 1 N B $end
$var wire 1 e Y $end
$upscope $end
$scope module _148_ $end
$var wire 1 f A $end
$var wire 1 e B $end
$var wire 1 d Y $end
$upscope $end
$scope module _149_ $end
$var wire 1 g A $end
$var wire 1 d B $end
$var wire 1 c Y $end
$upscope $end
$scope module _150_ $end
$var wire 1 h A $end
$var wire 1 c B $end
$var wire 1 ^" Y $end
$upscope $end
$scope module _151_ $end
$var wire 1 T A $end
$var wire 1 P B $end
$var wire 1 b Y $end
$upscope $end
$scope module _152_ $end
$var wire 1 _" A $end
$var wire 1 K B $end
$var wire 1 a Y $end
$upscope $end
$scope module _153_ $end
$var wire 1 `" A $end
$var wire 1 H B $end
$var wire 1 ` Y $end
$upscope $end
$scope module _154_ $end
$var wire 1 a" A $end
$var wire 1 N B $end
$var wire 1 _ Y $end
$upscope $end
$scope module _155_ $end
$var wire 1 ` A $end
$var wire 1 _ B $end
$var wire 1 ^ Y $end
$upscope $end
$scope module _156_ $end
$var wire 1 b A $end
$var wire 1 ^ B $end
$var wire 1 ] Y $end
$upscope $end
$scope module _157_ $end
$var wire 1 a A $end
$var wire 1 ] B $end
$var wire 1 b" Y $end
$upscope $end
$scope module _158_ $end
$var wire 1 / A $end
$var wire 1 )" Y $end
$upscope $end
$scope module _159_ $end
$var wire 1 / A $end
$var wire 1 (" Y $end
$upscope $end
$scope module _160_ $end
$var wire 1 / A $end
$var wire 1 '" Y $end
$upscope $end
$scope module _161_ $end
$var wire 1 / A $end
$var wire 1 &" Y $end
$upscope $end
$scope module _162_ $end
$var wire 1 / A $end
$var wire 1 %" Y $end
$upscope $end
$scope module _163_ $end
$var wire 1 / A $end
$var wire 1 $" Y $end
$upscope $end
$scope module _164_ $end
$var wire 1 / A $end
$var wire 1 #" Y $end
$upscope $end
$scope module _165_ $end
$var wire 1 / A $end
$var wire 1 "" Y $end
$upscope $end
$scope module _166_ $end
$var wire 1 *" C $end
$var wire 1 c" D $end
$var reg 1 d" Q $end
$upscope $end
$scope module _167_ $end
$var wire 1 )" C $end
$var wire 1 e" D $end
$var reg 1 f" Q $end
$upscope $end
$scope module _168_ $end
$var wire 1 (" C $end
$var wire 1 g" D $end
$var reg 1 h" Q $end
$upscope $end
$scope module _169_ $end
$var wire 1 '" C $end
$var wire 1 i" D $end
$var reg 1 j" Q $end
$upscope $end
$scope module _170_ $end
$var wire 1 &" C $end
$var wire 1 k" D $end
$var reg 1 l" Q $end
$upscope $end
$scope module _171_ $end
$var wire 1 %" C $end
$var wire 1 m" D $end
$var reg 1 n" Q $end
$upscope $end
$scope module _172_ $end
$var wire 1 $" C $end
$var wire 1 o" D $end
$var reg 1 p" Q $end
$upscope $end
$scope module _173_ $end
$var wire 1 #" C $end
$var wire 1 q" D $end
$var reg 1 r" Q $end
$upscope $end
$scope module _174_ $end
$var wire 1 "" C $end
$var wire 1 : D $end
$var reg 1 ( Q $end
$upscope $end
$scope module _175_ $end
$var wire 1 / C $end
$var wire 1 s" D $end
$var reg 1 t" Q $end
$upscope $end
$scope module _176_ $end
$var wire 1 / C $end
$var wire 1 u" D $end
$var reg 1 v" Q $end
$upscope $end
$scope module _177_ $end
$var wire 1 / C $end
$var wire 1 w" D $end
$var reg 1 x" Q $end
$upscope $end
$scope module _178_ $end
$var wire 1 / C $end
$var wire 1 y" D $end
$var reg 1 z" Q $end
$upscope $end
$scope module _179_ $end
$var wire 1 / C $end
$var wire 1 {" D $end
$var reg 1 |" Q $end
$upscope $end
$scope module _180_ $end
$var wire 1 / C $end
$var wire 1 }" D $end
$var reg 1 ~" Q $end
$upscope $end
$scope module _181_ $end
$var wire 1 / C $end
$var wire 1 !# D $end
$var reg 1 "# Q $end
$upscope $end
$scope module _182_ $end
$var wire 1 / C $end
$var wire 1 ## D $end
$var reg 1 $# Q $end
$upscope $end
$scope module _183_ $end
$var wire 1 / C $end
$var wire 1 ," D $end
$var reg 1 : Q $end
$upscope $end
$scope module _184_ $end
$var wire 1 / C $end
$var wire 1 %# D $end
$var reg 1 &# Q $end
$upscope $end
$scope module _185_ $end
$var wire 1 / C $end
$var wire 1 '# D $end
$var reg 1 (# Q $end
$upscope $end
$scope module _186_ $end
$var wire 1 / C $end
$var wire 1 )# D $end
$var reg 1 *# Q $end
$upscope $end
$scope module _187_ $end
$var wire 1 / C $end
$var wire 1 +# D $end
$var reg 1 ,# Q $end
$upscope $end
$upscope $end
$upscope $end
$enddefinitions $end
#0
$dumpvars
0,#
0+#
0*#
0)#
x(#
x'#
x&#
x%#
x$#
x##
x"#
x!#
x~"
x}"
x|"
x{"
xz"
xy"
xx"
xw"
xv"
xu"
xt"
xs"
xr"
xq"
xp"
xo"
xn"
xm"
xl"
xk"
xj"
xi"
xh"
xg"
xf"
xe"
xd"
xc"
xb"
0a"
0`"
0_"
x^"
0]"
0\"
0["
xZ"
0Y"
0X"
0W"
xV"
0U"
0T"
0S"
xR"
0Q"
0P"
0O"
xN"
0M"
0L"
0K"
xJ"
0I"
0H"
0G"
xF"
0E"
0D"
xC"
xB"
0A"
x@"
x?"
x>"
x="
x<"
x;"
x:"
x9"
08"
07"
06"
05"
04"
03"
02"
01"
00"
0/"
x."
b0xx -"
x,"
bx +"
x*"
x)"
x("
x'"
x&"
x%"
x$"
x#"
x""
x!"
x~
x}
x|
x{
xz
xy
xx
xw
xv
xu
xt
xs
xr
xq
xp
xo
xn
xm
xl
xk
xj
xi
xh
xg
xf
xe
xd
xc
xb
xa
x`
x_
x^
x]
x\
x[
xZ
xY
xX
xW
xV
xU
xT
xS
xR
xQ
xP
xO
xN
xM
xL
xK
xJ
xI
xH
xG
xF
xE
xD
xC
xB
xA
x@
x?
x>
x=
bx <
b0xx ;
x:
bx 9
b0 8
b0 7
bx 6
b0 5
04
b0 3
bx 2
b0 1
10
1/
0.
b0 -
bx ,
bx +
0*
x)
x(
x'
z&
z%
z$
z#
z"
z!
$end
#2
0*"
0)"
0("
0'"
0&"
0%"
0$"
0#"
0""
1[
1Z
1Y
1X
1W
1V
1U
1T
#6
0L
0B
0!"
0y
0s
0m
0g
0b
1S
1J
1G
1F
1C
1A
1@
1=
1~
1}
1z
1x
1w
1t
1r
1q
1n
1l
1k
1h
1f
1e
1a
1`
1_
1R
#8
0,"
#10
0%#
0="
0;"
0E
0?
0|
0v
0p
0j
0d
0^
b0x0 -"
0:"
0N
0H
#12
1Q
1M
#16
0K
1P
1D
1>
1{
1u
1o
1i
1c
1]
#20
b0 ,
b0 2
b0 6
0)
0/
0'#
0s"
0u"
0w"
0y"
0{"
0}"
0!#
0##
b0 -"
0?"
0F"
0J"
0N"
0R"
0V"
0Z"
0^"
b0 +"
0b"
#22
1*"
1)"
1("
1'"
1&"
1%"
1$"
1#"
1""
#40
0C"
0@"
0<"
0."
0B"
0>"
09"
0q"
0o"
0m"
0k"
0i"
0g"
0e"
0c"
0(#
b0 ;
0&#
0:
0$#
0"#
0~"
0|"
0z"
0x"
0v"
b0 9
0t"
1/
00
#42
1\
0*"
0)"
0("
0'"
0&"
0%"
0$"
0#"
0""
#46
1I
1O
#60
0/
#62
0d"
0f"
0h"
0j"
0l"
0n"
0p"
b0 +
b0 <
0r"
0(
1*"
1)"
1("
1'"
1&"
1%"
1$"
1#"
1""
#80
b1 3
14
b10101011 5
1/"
10"
11"
12"
14"
15"
16"
1A"
1D"
1E"
1G"
1H"
1L"
1M"
1O"
1P"
1Q"
1T"
1W"
1X"
1\"
1]"
1_"
1`"
1a"
1*
b10101011110011011110111111111111 -
b10101011110011011110111111111111 1
b10101011110011011110111111111111 7
b10101011110011011110111111111111 8
1/
10
1.
#82
0[
0Z
0Y
0X
0V
0U
0T
0*"
0)"
0("
0'"
0&"
0%"
0$"
0#"
0""
#84
0R
#86
1,"
#90
1%#
1="
1;"
b1 -"
1:"
#92
0Q
#98
1K
#100
b10101011 ,
b10101011 2
b10101011 6
1)
0/
#102
1*"
1)"
1("
1'"
1&"
1%"
1$"
1#"
1""
0J
0C
0z
0n
0a
#108
1s"
1u"
1y"
1}"
1##
1F"
1J"
1R"
1Z"
b10101011 +"
1b"
#120
1B"
1>"
19"
1q"
1m"
1i"
1e"
1c"
b1 ;
1&#
1:
1$#
1~"
1z"
1v"
b10101011 9
1t"
b10 3
b11001101 5
1/
00
#122
0*"
0)"
0("
0'"
0&"
0%"
0$"
0#"
0""
#124
0%#
0="
0;"
0O
b0 -"
0:"
#126
1Q
#130
0K
1N
#132
0M
#134
0F
0~
0w
0e
0_
#136
1J
1C
1z
1n
1a
#138
1'#
b10 -"
1?"
#140
b11001101 ,
b11001101 2
b11001101 6
0/
0s"
0u"
0y"
0}"
0##
0F"
0J"
0R"
0Z"
b0 +"
0b"
1E
1|
1v
1d
1^
#142
1d"
1f"
1j"
1n"
b10101011 +
b10101011 <
1r"
1(
1*"
1)"
1("
1'"
1&"
1%"
1$"
1#"
1""
#144
0D
0{
0u
0c
0]
#150
1s"
1w"
1y"
1!#
1##
1F"
1N"
1R"
1^"
b11001101 +"
1b"
#160
0e"
1g"
0m"
1o"
0B"
0>"
09"
1C"
1@"
1<"
1."
b11 3
b11101111 5
0v"
1x"
0~"
b11001101 9
1"#
0&#
b10 ;
1(#
1/
10
0.
#162
0\
0*"
0)"
0("
0'"
0&"
0%"
0$"
0#"
0""
#166
1%#
1="
1;"
1O
b11 -"
1:"
#168
0Q
#170
0P
0N
#172
1M
#176
1L
1B
1!"
1y
1m
1g
1b
1F
1~
1w
1e
1_
#180
b11101111 ,
b11101111 2
b11101111 6
0/
0>
0i
0E
0|
0v
0d
0^
#182
0f"
1h"
0n"
b11001101 +
b11001101 <
1p"
1*"
1)"
1("
1'"
1&"
1%"
1$"
1#"
1""
#186
1u"
1}"
1J"
b11101111 +"
1Z"
#200
1B"
1>"
19"
1m"
1e"
b11 ;
1&#
1~"
b11101111 9
1v"
b0 3
b11111111 5
1/
00
#202
0*"
0)"
0("
0'"
0&"
0%"
0$"
0#"
0""
#204
0%#
0="
0;"
0I
b10 -"
0:"
#206
1Q
#210
1P
1H
#214
0'#
b0 -"
0?"
0L
0B
0!"
0y
0m
0g
0b
0G
0A
0}
0x
0r
0l
0f
0`
#220
b11111111 ,
b11111111 2
b11111111 6
0/
1D
1>
1{
1u
1i
1c
1]
1E
1?
1|
1v
1p
1j
1d
1^
#222
1f"
b11101111 +
b11101111 <
1n"
1*"
1)"
1("
1'"
1&"
1%"
1$"
1#"
1""
#224
0s"
0u"
0w"
0y"
0}"
0!#
0##
0F"
0J"
0N"
0R"
0Z"
0^"
b0 +"
0b"
0D
0>
0{
0u
0o
0i
0c
0]
#230
1s"
1u"
1w"
1y"
1{"
1}"
1!#
1##
1F"
1J"
1N"
1R"
1V"
1Z"
1^"
b11111111 +"
1b"
#240
1k"
0B"
0>"
09"
0C"
0@"
0<"
0."
b1 3
b10101101 5
b11111111 9
1|"
0&#
b0 ;
0(#
00"
04"
0G"
0H"
1K"
1U"
0X"
1Y"
0]"
b10101101101111011100110111011101 -
b10101101101111011100110111011101 1
b10101101101111011100110111011101 7
b10101101101111011100110111011101 8
1/
10
1.
#242
1\
1Z
1V
0*"
0)"
0("
0'"
0&"
0%"
0$"
0#"
0""
#246
1%#
1="
1;"
b1 -"
1:"
1I
1A
1l
#248
0Q
#250
0H
0?
0j
#254
1K
#256
1G
1}
1x
1r
1f
1`
1>
1i
#258
0J
0=
0z
0n
0a
#260
b10101101 ,
b10101101 2
b10101101 6
0/
0u"
0E
0|
0v
0p
0d
0^
b11111101 +"
0J"
#262
b11111111 +
b11111111 <
1l"
1*"
1)"
1("
1'"
1&"
1%"
1$"
1#"
1""
#266
1D
1{
1u
1o
1c
1]
#270
0{"
0!#
0V"
b10101101 +"
0^"
#280
1B"
1>"
19"
0o"
0k"
0e"
b1 ;
1&#
0"#
0|"
b10101101 9
0v"
b10 3
b10111101 5
1/
00
#282
0*"
0)"
0("
0'"
0&"
0%"
0$"
0#"
0""
#284
0%#
0="
0;"
0O
b0 -"
0:"
#286
1Q
#290
0K
1N
#292
0M
#294
0F
0~
0w
0q
0k
0_
#296
1J
1=
1z
1n
1a
#298
1'#
b10 -"
1?"
#300
b10111101 ,
b10111101 2
b10111101 6
0/
0s"
0w"
0y"
0}"
0##
0F"
0N"
0R"
0Z"
b0 +"
0b"
1E
1|
1v
1p
1j
1^
#302
0f"
0l"
b10101101 +
b10101101 <
0p"
1*"
1)"
1("
1'"
1&"
1%"
1$"
1#"
1""
#304
0D
0{
0u
0o
0i
0]
#310
1s"
1w"
1y"
1{"
1}"
1##
1F"
1N"
1R"
1V"
1Z"
b10111101 +"
1b"
#320
1k"
0B"
0>"
09"
1C"
1@"
1<"
1."
b11 3
b11001101 5
b10111101 9
1|"
0&#
b10 ;
1(#
1/
10
0.
#322
0\
0*"
0)"
0("
0'"
0&"
0%"
0$"
0#"
0""
#326
1%#
1="
1;"
1O
b11 -"
1:"
#328
0Q
#330
0P
0N
#332
1M
#336
1L
1!"
1y
1g
1b
1F
1~
1w
1q
1k
1_
#340
b11001101 ,
b11001101 2
b11001101 6
0/
0c
0E
0|
0v
0p
0j
0^
#342
b10111101 +
b10111101 <
1l"
1*"
1)"
1("
1'"
1&"
1%"
1$"
1#"
1""
#346
1!#
b11111101 +"
1^"
1o
1i
#350
0{"
0}"
0V"
b11001101 +"
0Z"
#360
1B"
1>"
19"
1o"
0m"
0k"
b11 ;
1&#
1"#
0~"
b11001101 9
0|"
b0 3
b11011101 5
1/
00
#362
0*"
0)"
0("
0'"
0&"
0%"
0$"
0#"
0""
#364
0%#
0="
0;"
0I
b10 -"
0:"
#366
1Q
#370
1P
1H
#374
0'#
b0 -"
0?"
0L
0!"
0y
0g
0b
0G
0}
0x
0r
0f
0`
#380
b11011101 ,
b11011101 2
b11011101 6
0/
1D
1{
1u
1c
1]
1E
1|
1v
1p
1d
1^
#382
0l"
0n"
b11001101 +
b11001101 <
1p"
1*"
1)"
1("
1'"
1&"
1%"
1$"
1#"
1""
#384
0s"
0w"
0y"
0!#
0##
0F"
0N"
0R"
0^"
b0 +"
0b"
0D
0{
0u
0o
0c
0]
#390
1s"
1w"
1y"
1{"
1!#
1##
1F"
1N"
1R"
1V"
1^"
b11011101 +"
1b"
#400
1k"
0B"
0>"
09"
0C"
0@"
0<"
0."
b0 5
04
b11011101 9
1|"
0&#
b0 ;
0(#
0*
1/
10
1.
#402
1\
0*"
0)"
0("
0'"
0&"
0%"
0$"
0#"
0""
#406
1%#
1="
1;"
b1 -"
1:"
1I
1R
#408
0Q
0,"
#410
0%#
0="
0;"
b0 -"
0:"
0H
#412
1Q
#416
1G
1}
1x
1r
1f
1`
#420
b0 ,
b0 2
b0 6
0)
0/
0E
0|
0v
0p
0d
0^
#422
b11011101 +
b11011101 <
1l"
1*"
1)"
1("
1'"
1&"
1%"
1$"
1#"
1""
#426
1D
1{
1u
1o
1c
1]
#430
0s"
0w"
0y"
0{"
0!#
0##
0F"
0N"
0R"
0V"
0^"
b0 +"
0b"
#440
0q"
0o"
0k"
0i"
0g"
0c"
0:
0$#
0"#
0|"
0z"
0x"
b0 9
0t"
1/
00
#442
0*"
0)"
0("
0'"
0&"
0%"
0$"
0#"
0""
#460
0/
#462
0d"
0h"
0j"
0l"
0p"
b0 +
b0 <
0r"
0(
1*"
1)"
1("
1'"
1&"
1%"
1$"
1#"
1""
#480
1/
10
0.
#482
0*"
0)"
0("
0'"
0&"
0%"
0$"
0#"
0""
#500
0/
#502
1*"
1)"
1("
1'"
1&"
1%"
1$"
1#"
1""
#520
1/
00
#522
0*"
0)"
0("
0'"
0&"
0%"
0$"
0#"
0""
#540
0/
#542
1*"
1)"
1("
1'"
1&"
1%"
1$"
1#"
1""
#560
b1 3
14
b1 5
0/"
02"
05"
06"
0E"
1H"
1I"
0K"
0L"
0M"
0O"
0P"
0Q"
0T"
0U"
0W"
0Y"
0\"
0_"
0`"
0a"
1*
b1000000100000010000000011 -
b1000000100000010000000011 1
b1000000100000010000000011 7
b1000000100000010000000011 8
1/
10
1.
#562
1[
1X
1U
1T
0*"
0)"
0("
0'"
0&"
0%"
0$"
0#"
0""
#564
0R
#566
1,"
#570
1%#
1="
1;"
b1 -"
1:"
#572
0Q
#578
1K
#580
b1 ,
b1 2
b1 6
1)
0/
#582
1*"
1)"
1("
1'"
1&"
1%"
1$"
1#"
1""
0J
#588
1s"
b1 +"
1F"
#600
1B"
1>"
19"
1c"
b1 ;
1&#
1:
b1 9
1t"
b10 3
b10 5
1/
00
#602
0*"
0)"
0("
0'"
0&"
0%"
0$"
0#"
0""
#604
0%#
0="
0;"
0O
b0 -"
0:"
#606
1Q
#610
0K
1N
#612
0M
#614
0@
#616
1J
#618
1'#
b10 -"
1?"
#620
b10 ,
b10 2
b10 6
0/
0s"
b0 +"
0F"
1?
#622
b1 +
b1 <
1d"
1(
1*"
1)"
1("
1'"
1&"
1%"
1$"
1#"
1""
#624
0>
#630
1u"
b10 +"
1J"
#640
0c"
1e"
0B"
0>"
09"
1C"
1@"
1<"
1."
b11 3
b100 5
0t"
b10 9
1v"
0&#
b10 ;
1(#
1/
10
0.
#642
0\
0*"
0)"
0("
0'"
0&"
0%"
0$"
0#"
0""
#646
1%#
1="
1;"
1O
b11 -"
1:"
#648
0Q
#650
0P
0N
#652
1M
#656
1!"
1@
#660
b100 ,
b100 2
b100 6
0/
0{
0?
#662
0d"
b10 +
b10 <
1f"
1*"
1)"
1("
1'"
1&"
1%"
1$"
1#"
1""
#666
1w"
b110 +"
1N"
1>
#670
0u"
b100 +"
0J"
#680
1B"
1>"
19"
1g"
0e"
b11 ;
1&#
1x"
b100 9
0v"
b0 3
b11 5
1/
00
#682
0*"
0)"
0("
0'"
0&"
0%"
0$"
0#"
0""
#684
0%#
0="
0;"
0I
b10 -"
0:"
#686
1Q
#690
1P
1H
#694
0'#
b0 -"
0?"
0!"
0G
0A
#700
b11 ,
b11 2
b11 6
0/
1{
1E
1?
#702
0f"
b100 +
b100 <
1h"
1*"
1)"
1("
1'"
1&"
1%"
1$"
1#"
1""
#704
0w"
b0 +"
0N"
0D
0>
#710
1s"
1u"
1F"
b11 +"
1J"
